<svg width="30" height="30" viewBox="0 0 30 30" fill="none" xmlns="http://www.w3.org/2000/svg">
<path d="M21.285 15.7109C21.2841 15.5077 21.2834 15.2984 21.2834 15.125C21.2834 14.6189 21.1822 14.1362 20.9998 13.6953C21.8996 12.7427 22.4062 11.4821 22.4062 10.1563C22.4062 7.31309 20.0932 5 17.25 5C16.0231 5 14.8343 5.43833 13.9025 6.23427C13.1853 6.84692 12.6535 7.64281 12.3586 8.52641C11.8329 8.36816 11.2833 8.28584 10.7263 8.28584C7.57739 8.28584 5.01562 10.8363 5.01562 13.9713V14.4524C3.76294 15.3317 3.00398 16.7783 3 18.3539V18.3594V18.3663V18.3719C3.00666 20.9496 5.06348 23.0544 7.62281 23.138C7.64592 23.1398 7.66922 23.1406 7.69266 23.1406H20.4276C20.9453 23.1406 21.3651 22.7209 21.3651 22.2031C21.3651 21.6853 20.9453 21.2656 20.4276 21.2656H7.78688L7.70766 21.2647C6.14025 21.2255 4.87688 19.9391 4.875 18.3628C4.87627 17.2801 5.45756 16.2996 6.39262 15.8033C6.69905 15.6407 6.89062 15.3222 6.89062 14.9752V13.9713C6.89062 11.8702 8.61131 10.1608 10.7263 10.1608C12.5872 10.1608 14.2058 11.5506 14.4914 13.3935C14.5471 13.7529 14.8055 14.0476 15.1545 14.1498C15.5035 14.2519 15.8801 14.143 16.1207 13.8704C16.476 13.4679 16.9764 13.2462 17.5295 13.2462C18.5655 13.2462 19.4084 14.089 19.4084 15.125C19.4084 15.6608 19.4147 16.5294 19.4147 16.5381C19.4185 17.0533 19.8371 17.4688 20.3522 17.4688C21.3894 17.4688 22.2656 18.3471 22.2656 19.3868C22.2656 19.9045 22.6853 20.3243 23.2031 20.3243C23.7209 20.3243 24.1406 19.9045 24.1406 19.3868C24.1406 18.3837 23.7456 17.4345 23.0282 16.7142C22.5363 16.2203 21.9366 15.878 21.285 15.7109Z" fill="#4F4F4F"/>
</svg>
