<svg width="30" height="30" viewBox="0 0 30 30" fill="none" xmlns="http://www.w3.org/2000/svg">
<path d="M9.99299 15C9.99299 17.761 12.239 20.007 15 20.007C17.761 20.007 20.007 17.761 20.007 15C20.007 12.239 17.761 9.993 15 9.993C12.239 9.993 9.99299 12.239 9.99299 15ZM15 11.993C16.658 11.993 18.007 13.342 18.007 15C18.007 16.658 16.658 18.007 15 18.007C13.342 18.007 11.993 16.658 11.993 15C11.993 13.342 13.342 11.993 15 11.993ZM13.998 22H15.998V25H13.998V22ZM13.998 5H15.998V8H13.998V5ZM4.99799 14H7.99799V16H4.99799V14ZM21.998 14H24.998V16H21.998V14Z" fill="#4F4F4F"/>
<path d="M7.21906 21.3634L9.33975 19.2415L10.7544 20.6552L8.63369 22.7772L7.21906 21.3634Z" fill="#4F4F4F"/>
<path d="M19.2402 9.34363L21.3622 7.22156L22.7765 8.63575L20.6545 10.7578L19.2402 9.34363Z" fill="#4F4F4F"/>
<path d="M9.34174 10.7585L7.22104 8.6366L8.63568 7.2228L10.7564 9.34475L9.34174 10.7585Z" fill="#4F4F4F"/>
<path d="M22.7758 21.3635L21.3616 22.7778L19.2395 20.6558L20.6537 19.2415L22.7758 21.3635Z" fill="#4F4F4F"/>
</svg>
