<svg width="135" height="135" viewBox="0 0 135 135" fill="none" xmlns="http://www.w3.org/2000/svg">
<path d="M16.9629 57.1868V54.4805C16.9629 44.2639 21.7998 35.1509 29.3134 29.2921C32.9984 15.6755 45.51 5.62501 60.3352 5.62501C63.4687 5.62501 66.56 6.08802 69.5171 6.97817C71.8944 7.81442 77.1404 9.9375 79.1058 11.7398C79.8414 12.2756 80.5573 12.843 81.2494 13.4439C84.9079 16.6193 87.7769 20.5575 89.6753 24.9313C92.4336 23.6602 95.4766 22.9799 98.6038 22.9799C103.503 22.9799 108.014 24.6619 111.601 27.4723C113.485 29.4804 117.428 34.0078 118.124 36.053C119.15 38.5334 119.719 41.2487 119.719 44.0953C119.719 45.0709 119.262 48.1942 119.268 49.3375C124.08 50.7091 123.796 50.6592 126.562 53.4375C130.598 57.4894 129.534 61.8574 129.534 67.5C129.534 69.6738 125.944 74.4939 122.913 76.7987C123.981 79.3539 124.541 82.1101 124.541 84.9428C124.541 87.855 122.18 90.2162 119.268 90.2162C118.028 90.2162 116.888 89.7883 115.987 89.072C114.773 88.1059 113.994 86.6152 113.994 84.9428C113.994 82.6112 113.211 80.4238 111.899 78.6363C109.92 75.9405 106.739 74.1541 103.231 74.1541C100.334 74.1541 97.979 71.8167 97.9579 68.9192L97.9575 68.8667L97.9575 68.864C97.9537 68.3145 97.9223 63.8108 97.9223 60.9705C97.9223 55.1429 93.1812 50.4018 87.3535 50.4018C84.2422 50.4018 81.4278 51.6489 79.4289 53.9134C78.0754 55.4466 75.9574 56.0591 73.9941 55.4846C72.031 54.91 70.5774 53.2521 70.2642 51.2308C68.6579 40.8642 59.553 33.0469 49.0852 33.0469C45.3847 33.0469 41.8988 33.9772 38.852 35.6147C32.1038 39.2417 27.5098 46.3382 27.5098 54.4805V60.1278C27.5098 62.0793 26.4321 63.8712 24.7085 64.7859C21.9897 66.2288 19.8026 68.3996 18.323 71.0013C16.9402 73.4329 16.1753 76.2408 16.1719 79.1829C16.1824 88.0494 23.2889 95.2856 32.1056 95.506L32.5512 95.5113H43.8118C46.7243 95.5113 49.0852 97.8722 49.0852 100.785C49.0852 103.697 46.7243 106.058 43.8118 106.058H32.0212C31.8894 106.058 31.7583 106.053 31.6283 106.044C17.2321 105.573 5.66244 93.7339 5.625 79.234V79.133C5.64741 70.2702 9.91652 62.1328 16.9629 57.1868Z" fill="white"/>
<path d="M61.875 84.375L56.25 112.5H67.5V135L89.8594 101.25H78.75L84.375 84.375H61.875Z" fill="white"/>
</svg>
