<svg width="30" height="30" viewBox="0 0 30 30" fill="none" xmlns="http://www.w3.org/2000/svg">
<path d="M6.01562 14.1665V13.6854C6.01562 11.8691 6.87551 10.2491 8.21128 9.20748C8.86639 6.78675 11.0907 5 13.7263 5C14.2833 5 14.8329 5.08231 15.3586 5.24056C15.7812 5.38923 16.7139 5.76667 17.0633 6.08708C17.194 6.18233 17.3213 6.2832 17.4443 6.39003C18.0947 6.95455 18.6048 7.65467 18.9423 8.43223C19.4326 8.20625 19.9736 8.08531 20.5296 8.08531C21.4005 8.08531 22.2025 8.38433 22.8402 8.88397C23.1752 9.24095 23.8761 10.0458 23.9998 10.4094C24.1822 10.8504 24.2834 11.3331 24.2834 11.8392C24.2834 12.0126 24.2022 12.5679 24.2031 12.7711C25.0588 13.0149 25.0081 13.0061 25.5 13.5C26.2174 14.2203 26.0282 14.9969 26.0282 16C26.0282 16.3864 25.3901 17.2434 24.8511 17.6531C25.0411 18.1074 25.1406 18.5973 25.1406 19.1009C25.1406 19.6187 24.7209 20.0384 24.2031 20.0384C23.9827 20.0384 23.78 19.9624 23.62 19.835C23.404 19.6633 23.2656 19.3983 23.2656 19.1009C23.2656 18.6864 23.1263 18.2976 22.8931 17.9798C22.5413 17.5005 21.9759 17.183 21.3522 17.183C20.8371 17.183 20.4185 16.7674 20.4147 16.2523L20.4147 16.243L20.4147 16.2423C20.414 16.1435 20.4084 15.3437 20.4084 14.8392C20.4084 13.8032 19.5655 12.9603 18.5295 12.9603C17.9764 12.9603 17.476 13.182 17.1207 13.5846C16.8801 13.8572 16.5035 13.9661 16.1545 13.8639C15.8055 13.7618 15.5471 13.467 15.4914 13.1077C15.2058 11.2648 13.5872 9.875 11.7263 9.875C11.0684 9.875 10.4487 10.0404 9.90703 10.3315C8.70734 10.9763 7.89062 12.2379 7.89062 13.6854V14.6894C7.89062 15.0363 7.69905 15.3549 7.39262 15.5175C6.90928 15.774 6.52047 16.1599 6.25742 16.6225C6.01159 17.0547 5.87561 17.5539 5.875 18.077C5.87688 19.6532 7.14025 20.9397 8.70766 20.9788L8.78688 20.9798H21.4772C21.995 20.9798 22.4147 21.3995 22.4147 21.9173C22.4147 22.4351 21.995 22.8548 21.4772 22.8548H8.69266C8.66922 22.8548 8.64592 22.8539 8.62281 22.8522C6.06348 22.7686 4.00666 20.6638 4 18.086V18.0681C4.00398 16.4925 4.76294 15.0458 6.01562 14.1665Z" fill="#4F4F4F"/>
</svg>
